<?xml version="1.0" encoding="UTF-8"?>
<!DOCTYPE svg  PUBLIC '-//W3C//DTD SVG 1.1//EN'  'http://www.w3.org/Graphics/SVG/1.1/DTD/svg11.dtd'>
<svg enable-background="new 0 0 1000 1000" version="1.1" viewBox="0 0 1000 1000" xml:space="preserve" xmlns="http://www.w3.org/2000/svg">
<path d="m227.3 79.7l142.8-63.6 45.6 102.3c49.7-11 100.1-12 148.6-3.9l40.1-104.5 145.9 56-40.1 104.6c41.5 26.4 78.3 60.8 107.8 102.3l102.3-45.6 63.6 142.8-102.3 45.6c11 49.7 12 100.1 3.9 148.6l104.5 40.1-56 145.9-104.6-40.1c-26.4 41.4-60.8 78.3-102.3 107.8l45.6 102.3-142.8 63.6-45.6-102.3c-49.7 11-100.1 12-148.6 3.9l-40.1 104.5-145.9-56 40.2-104.6c-41.5-26.4-78.4-60.8-107.9-102.3l-102.3 45.6-63.6-142.8 102.3-45.6c-11-49.7-12-100.1-3.9-148.6l-104.5-40.1 56-145.9 104.6 40.1c26.4-41.5 60.8-78.3 102.3-107.8l-45.6-102.3zm177.4 206.2c-118.3 52.7-171.5 191.2-118.8 309.5s191.2 171.5 309.5 118.8 171.5-191.2 118.8-309.5-191.3-171.5-309.5-118.8z"/>
</svg>
